\relax 
\bibstyle{agsm}
\@writefile{toc}{\contentsline {section}{\numberline {1}Quick Reference}{1}\protected@file@percent }
\citation{latex}
\citation{latex}
\citation{latex}
\citation{latex}
\citation{latex}
\citation{latex,btxdoc}
\citation{latex,btxdoc}
\citation{latex}
\citation{latex}
\citation{latex}
\citation{latex}
\citation{latex}
\citation{latex}
\citation{latex}
\citation{latex}
\citation{latex}
\citation{latex}
\citation{latex,btxdoc}
\citation{latex,btxdoc}
\citation{latex}
\citation{latex}
\citation{latex}
\citation{latex}
\citation{latex}
\citation{latex}
\citation{latex}
\citation{latex}
\citation{latex}
\citation{latex}
\citation{latex}
\@writefile{toc}{\contentsline {subsection}{\numberline {1.1}Single Table}{2}\protected@file@percent }
\@writefile{toc}{\contentsline {subsection}{\numberline {1.2}Multiple Tables}{2}\protected@file@percent }
\citation{latex}
\citation{latex}
\citation{latex,btxdoc}
\citation{latex,btxdoc}
\citation{latex}
\citation{latex}
\citation{latex}
\citation{latex,btxdoc}
\citation{latex,btxdoc}
\citation{latex}
\citation{latex}
\citation{latex}
\citation{latex}
\citation{latex}
\citation{latex}
\citation{latex}
\citation{latex}
\citation{latex}
\citation{latex}
\citation{latex}
\citation{latex}
\citation{latex}
\citation{latex}
\citation{latex,btxdoc}
\citation{latex,btxdoc}
\citation{latex}
\citation{latex}
\citation{latex}
\citation{latex}
\citation{latex}
\citation{latex}
\citation{btxdoc}
\citation{agsm}
\@writefile{toc}{\contentsline {subsection}{\numberline {1.3}Arrows}{3}\protected@file@percent }
\@writefile{toc}{\contentsline {subsubsection}{\numberline {1.3.1}Complete Citations}{3}\protected@file@percent }
\@writefile{toc}{\contentsline {subsubsection}{\numberline {1.3.2}Partial Citations}{3}\protected@file@percent }
\@writefile{toc}{\contentsline {subsubsection}{\numberline {1.3.3}Parenthesis Styles}{3}\protected@file@percent }
\@writefile{toc}{\contentsline {section}{\numberline {2}Introduction}{3}\protected@file@percent }
\citation{btxdoc}
\citation{latex}
\citation{btxdoc}
\citation{latex}
\citation{latex}
\@writefile{toc}{\contentsline {section}{\numberline {3}Citations}{4}\protected@file@percent }
\@writefile{toc}{\contentsline {subsection}{\numberline {3.1}Complete Citations}{4}\protected@file@percent }
\citation{latex,btxdoc}
\citation{btxdoc,latex}
\citation{btxdoc}
\@writefile{toc}{\contentsline {subsection}{\numberline {3.2}Citation Modes}{5}\protected@file@percent }
\@writefile{toc}{\contentsline {subsection}{\numberline {3.3}Partial Citations}{5}\protected@file@percent }
\citation{agsm}
\citation{latex}
\citation{btxdoc}
\citation{latex}
\citation{btxdoc,latex}
\citation{btxdoc,latex}
\@writefile{toc}{\contentsline {subsection}{\numberline {3.4}Exceptions for Individual Citations}{6}\protected@file@percent }
\@writefile{toc}{\contentsline {section}{\numberline {4}Styles}{6}\protected@file@percent }
\@writefile{toc}{\contentsline {subsection}{\numberline {4.1}Bibliography Styles}{6}\protected@file@percent }
\@writefile{toc}{\contentsline {subsection}{\numberline {4.2}Citation Styles}{6}\protected@file@percent }
\citation{latex2htmldoc}
\citation{latex}
\@writefile{toc}{\contentsline {subsection}{\numberline {4.3}Parenthesis Style}{7}\protected@file@percent }
\@writefile{toc}{\contentsline {subsection}{\numberline {4.4}Conjunction Style}{7}\protected@file@percent }
\@writefile{toc}{\contentsline {section}{\numberline {5}World Wide Web (WWW) References}{7}\protected@file@percent }
\bibdata{harvard}
\harvardcite{latex2htmldoc}{Drakos}{Drakos}{1994}
\harvardcite{latex}{Lamport}{Lamport}{1986}
\harvardcite{btxdoc}{Patashnik}{Patashnik}{1988}
\harvardcite{agsm}{Pitson}{Pitson}{1978}
\@writefile{toc}{\contentsline {section}{\numberline {6}Doing It By Hand}{8}\protected@file@percent }
\@writefile{toc}{\contentsline {section}{\numberline {7}Acknowledgement}{8}\protected@file@percent }
